<?xml version="1.0" encoding="utf-8"?>
<!-- Generator: Adobe Illustrator 16.0.0, SVG Export Plug-In . SVG Version: 6.00 Build 0)  -->
<!DOCTYPE svg PUBLIC "-//W3C//DTD SVG 1.1//EN" "http://www.w3.org/Graphics/SVG/1.1/DTD/svg11.dtd">
<svg version="1.1" id="Layer_1" xmlns="http://www.w3.org/2000/svg" xmlns:xlink="http://www.w3.org/1999/xlink" x="0px" y="0px"
	 width="100.002px" height="100px" viewBox="0 0 100.002 100" enable-background="new 0 0 100.002 100" xml:space="preserve">
<path fill="#010101" d="M50,0C22.43,0,0,22.431,0,50s22.43,50,50,50c27.571,0,50.001-22.43,50.001-50S77.571,0,50,0z M50,96.297
	C24.472,96.297,3.704,75.528,3.704,50S24.472,3.704,50,3.704c25.529,0,46.297,20.769,46.297,46.296S75.529,96.297,50,96.297z"/>
</svg>
